{
  "name": "ESP8266-firmware-update",
  "keywords": "WIFI, Update, ESP8266, OTA",
  "description": "Library to check for a firmware update.",
  "frameworks": "arduino",
  "platforms": "esp8266",
  "category":"Communication",
  "version":2.1,
  "author":"Maleficarum",
  "maintainer":"Maleficarum < o@maleficarum.mx >"
}
